module text

go 1.18

require (
	github.com/gogo/protobuf v1.3.2
	github.com/golang/protobuf v1.5.2
	github.com/gorilla/mux v1.8.0
	go.mongodb.org/mongo-driver v1.9.1
	google.golang.org/protobuf v1.26.0
)

require (
	github.com/go-stack/stack v1.8.0 // indirect
	github.com/golang/snappy v0.0.1 // indirect
	github.com/klauspost/compress v1.13.6 // indirect
	github.com/pkg/errors v0.9.1 // indirect
	github.com/xdg-go/pbkdf2 v1.0.0 // indirect
	github.com/xdg-go/scram v1.0.2 // indirect
	github.com/xdg-go/stringprep v1.0.2 // indirect
	github.com/youmark/pkcs8 v0.0.0-20181117223130-1be2e3e5546d // indirect
	golang.org/x/crypto v0.0.0-20201216223049-8b5274cf687f // indirect
	golang.org/x/sync v0.0.0-20201020160332-67f06af15bc9 // indirect
	golang.org/x/text v0.3.5 // indirect
)
